R programming - manipulating data with dplyr | PANBLOG
…
> cran <- tbl_df(mydf)
# load data, tbl_df stands for data frame table

rm("mydf")
# remove the original dataframe from your workspace, to avoid confusion

> cran
# A tibble: 225,468 x 11
       X       date     time    size r_version r_arch      r_os      package version country ip_id
   <int>      <chr>    <chr>   <int>     <chr>  <chr>     <chr>        <chr>   <chr>   <chr> <int>
 1     1 2014-07-08 00:54:41   80589     3.1.0 x86_64   mingw32    htmltools   0.2.4      US     1
 2     2 2014-07-08 00:59:53  321767     3.1.0 x86_64   mingw32      tseries 0.10-32      US     2
 3     3 2014-07-08 00:47:13  748063     3.1.0 x86_64 linux-gnu        party  1.0-15      US     3
 4     4 2014-07-08 00:48:05  606104     3.1.0 x86_64 linux-gnu        Hmisc  3.14-4      US     3
 5     5 2014-07-08 00:46:50   79825     3.0.2 x86_64 linux-gnu       digest   0.6.4      CA     4
 6     6 2014-07-08 00:48:04   77681     3.1.0 x86_64 linux-gnu randomForest   4.6-7      US     3
 7     7 2014-07-08 00:48:35  393754     3.1.0 x86_64 linux-gnu         plyr   1.8.1      US     3
 8     8 2014-07-08 00:47:30   28216     3.0.2 x86_64 linux-gnu      whisker   0.3-2      US     5
 9     9 2014-07-08 00:54:58    5928      <NA>   <NA>      <NA>         Rcpp  0.10.4      CN     6
10    10 2014-07-08 00:15:35 2206029     3.0.2 x86_64 linux-gnu     hflights     0.1      US     7
# ... with 225,458 more rows
# once load package dplyr and read data, output is much more informative and compact than what we would get if we printed the original data frame (mydf)
…
> by_package <- group_by(cran, package)
> by_package
Source: local data frame [225,468 x 11]
Groups: package [6,023]
# A tibble: 225,468 x 11
       X       date     time    size r_version r_arch      r_os      package version country ip_id
   <int>      <chr>    <chr>   <int>     <chr>  <chr>     <chr>        <chr>   <chr>   <chr> <int>
 1     1 2014-07-08 00:54:41   80589     3.1.0 x86_64   mingw32    htmltools   0.2.4      US     1
 2     2 2014-07-08 00:59:53  321767     3.1.0 x86_64   mingw32      tseries 0.10-32      US     2
 3     3 2014-07-08 00:47:13  748063     3.1.0 x86_64 linux-gnu        party  1.0-15      US     3
 4     4 2014-07-08 00:48:05  606104     3.1.0 x86_64 linux-gnu        Hmisc  3.14-4      US     3
 5     5 2014-07-08 00:46:50   79825     3.0.2 x86_64 linux-gnu       digest   0.6.4      CA     4
 6     6 2014-07-08 00:48:04   77681     3.1.0 x86_64 linux-gnu randomForest   4.6-7      US     3
 7     7 2014-07-08 00:48:35  393754     3.1.0 x86_64 linux-gnu         plyr   1.8.1      US     3
 8     8 2014-07-08 00:47:30   28216     3.0.2 x86_64 linux-gnu      whisker   0.3-2      US     5
 9     9 2014-07-08 00:54:58    5928      <NA>   <NA>      <NA>         Rcpp  0.10.4      CN     6
10    10 2014-07-08 00:15:35 2206029     3.0.2 x86_64 linux-gnu     hflights     0.1      US     7
# ... with 225,458 more rows

> summarize(by_package, mean(size))
# A tibble: 6,023 x 2
       package `mean(size)`
         <chr>        <dbl>
 1          A3     62194.96
 2         abc   4826665.00
 3    abcdeFBA    455979.87
 4 ABCExtremes     22904.33
 5    ABCoptim     17807.25
 6       ABCp2     30473.33
 7    abctools   2589394.00
 8         abd    453631.24
 9        abf2     35692.62
10       abind     32938.88
# ... with 6,013 more rows
…
